From;To;Type;Through;start_x;start_y;stop_x;stop_y;Comment
#DAMERIA
11;935;sea;1271;1116;2362;1126;2368;Middletooth-Millmore
11;936;sea;1271;1100;2362;1084;2367;Middletooth-Pointsfort
13;936;sea;1271;1050;2355;1060;2361;Toothsend-Pointsfort
928;935;sea;1271;1149;2388;1143;2383;Toothspier-Millmore
2;934;sea;1272;1307;2394;1317;2388;Eargate-Floodtower Pass
276;934;sea;1272;1320;2372;1318;2381;Damescross-Floodtower Pass
55;394;river_large;1527;-1;-1;-1;-1;Riverglade-Eastbright
898;1778;river_large;1533;-1;-1;-1;-1;Aranthíl-?
281;1754;river_large;1547;-1;-1;-1;-1;Plumwall-?

#DAMESHEAD APPROACH
46;14;sea;1293;1091;2160;1103;2152;Jewelpoint-The Pearls
51;945;sea;1293;1229;2119;1191;2122;Watchman's Point-The Pearls
945;1056;sea;1293;1170;2125;1163;2127;Inter-Pearls Strait
1791;1796;sea;1280;1337;1982;1341;1981;Stingport-?
375;1796;sea;1280;1388;1959;1386;1962;The Tail-?
33;1094;sea;1297;902;2284;898;2281;Toarnaire-?
54;1728;sea;1274;1262;2249;1263;2246;Dancer's Retreat-?
109;1832;river_large;1531;-1;-1;-1;-1;Elensbridge-?
327;1839;river_large;1532;-1;-1;-1;-1;Cestaire-?

#SHATTERED BAY
146;1398;sea;1299;744;2860;755;2869;Baycodds-?

#THE REACH
707;713;sea;1256;1770;3291;1782;3294;Estjotun-Chillpoint
707;2657;sea;1256;1738;3316;1735;3323;Estjotun-?
2657;2658;sea;1256;1704;3321;1681;3300;?
704;2658;sea;1256;1645;3288;1655;3296;Reachspier-?
2684;2686;sea;1477;1620;3373;1630;3378;?
2655;2656;sea;1477;1839;3364;1839;3369;?
718;2633;sea;1286;2007;3343;2011;3345;?
2631;2633;sea;1286;2026;3343;2025;3345;?
735;736;sea;1286;2086;3342;2088;3348;Seawall-Isle Vroren

#BUSINOR
39;379;sea;1296;1675;1847;1680;1835;Lion's Pass-Stonegaze
36;1627;sea;1302;1661;1770;1645;1780;?
1628;1631;sea;1302;1694;1791;1696;1777;?-New Tefkora
1630;1631;sea;1302;1711;1786;1711;1782;?-New Tefkora
1622;1624;sea;1296;1531;1805;1546;1791;?

#CASTANOR
2424;2427;sea;1326;2118;2807;2118;2812;?
754;2423;river_large;1511;2072;2966;-1;-1;Westgate-?
839;2497;river_large;1511;-1;-1;-1;-1;?

#GAWED
216;1949;river_large;1508;1291;2877;1295;2877;Vertesk-?
337;1965;river_large;1522;1265;2945;1262;2943;Alenath-Henhurst Hall
220;1964;river_large;1523;-1;-1;-1;-1;Ginnfield-?
339;1960;river_large;1523;-1;-1;-1;-1;Elwick-upon-Alen-?
223;1988;river_large;1520;-1;-1;-1;-1;Drakesford-?
227;241;river_large;1516;-1;-1;-1;-1;Aldtempel-Wolfden
229;710;river_large;1515;1760;3047;1759;3050;Balmire-Mirelook
729;2494;river_large;1513;-1;-1;-1;-1;Athfork-?

#LORENT
101;1037;river_large;1496;-1;-1;-1;-1;Wineport-?
97;1036;river_large;1496;-1;-1;-1;-1;Minar-?
79;1033;river_large;1497;-1;-1;-1;-1;Lower Bloodwine-?
1140;1142;river_large;1509;-1;-1;-1;-1;?

#SMALL COUNTRY
60;155;river_large;1499;-1;-1;-1;-1;East Saltfort-West Saltfort
63;66;river_large;1501;-1;-1;-1;-1;North Viswall-South Viswall

#ESMAR
44;1865;river_large;1549;-1;-1;-1;-1;Tomansford-?
916;1857;river_large;1541;-1;-1;-1;-1;Seinathíl-?
274;1858;river_large;1541;1458;2437;-1;-1;Notesbridge-?
267;1871;river_large;1550;-1;-1;-1;-1;Themarenn-?
266;1874;river_large;1544;-1;-1;-1;-1;Esmarainé-?
266;1876;river_large;1544;-1;-1;-1;-1;Esmarainé-?
1874;1875;river_large;1544;-1;-1;-1;-1;?
260;1878;river_large;1543;-1;-1;-1;-1;Gabmórionn-?
262;1886;river_large;1542;-1;-1;-1;-1;Aranmas-?
234;2035;river_large;1540;-1;-1;-1;-1;Damescrown-?
268;1907;river_large;1545;-1;-1;-1;-1;Bennon-?
909;1913;river_large;1545;-1;-1;-1;-1;Havorton-?
901;1915;river_large;1546;-1;-1;-1;-1;Leslinpár-?

-1;-1;;-1;-1;-1;-1;-1;