5431 = {

    # Misc
    culture = maqeti
    religion = old_bulwari_sun_cult

    # History
}

5434 = {

    # Misc
    culture = maqeti
    religion = old_bulwari_sun_cult

    # History
}

5435 = {

    # Misc
    culture = maqeti
    religion = old_bulwari_sun_cult

    # History
}

5667 = {

    # Misc
    culture = maqeti
    religion = old_bulwari_sun_cult

    # History
}

5668 = {

    # Misc
    culture = maqeti
    religion = old_bulwari_sun_cult

    # History
}

5436 = {

    # Misc
    culture = maqeti
    religion = old_bulwari_sun_cult

    # History
}

5437 = {

    # Misc
    culture = maqeti
    religion = old_bulwari_sun_cult

    # History
}

566 = {

    # Misc
    culture = maqeti
    religion = old_bulwari_sun_cult

    # History
}

5432 = {

    # Misc
    culture = maqeti
    religion = old_bulwari_sun_cult

    # History
}

5433 = {

    # Misc
    culture = maqeti
    religion = old_bulwari_sun_cult

    # History
}